Stroke Prediction
…
data %>% count(smoking_status)

## # A tibble: 4 x 2
##   smoking_status      n
##   <chr>           <int>
## 1 formerly smoked   885
## 2 never smoked     1892
## 3 smokes            789
## 4 Unknown          1544

This is quite bad since 30% of the observation is missing this important feature. We may need to consider every model with and without this variable.

data %>% count(age)

## # A tibble: 104 x 2
##      age     n
##    <dbl> <int>
##  1  0.08     2
##  2  0.16     3
##  3  0.24     5
##  4  0.32     5
##  5  0.4      2
##  6  0.48     3
##  7  0.56     5
##  8  0.64     4
##  9  0.72     5
## 10  0.8      4
## # ... with 94 more rows
…
